  ET-D720210-0001   FB11290-A XY-DATA   L1-Side  2012.02.29


  PART_ID              XLOC            YLOC           ANGLE

  BFP1                 95.50            5.00           0.00
  BFP2                 95.50           70.30           0.00
  BFP3                  5.00           70.30           0.00
  C1                   84.50           15.00           0.00
  C2                   61.00           16.25          90.00
  C4                   48.00           17.00        -180.00
  C5                   58.50           22.50           0.00
  C10                  57.00           41.00          90.00
  C11                  90.30           51.50           0.00
  C12                  67.70           51.50           0.00
  C13                  45.10           51.50           0.00
  C14                  22.50           51.50           0.00
  C15                  81.20           35.50          90.00
  C16                  44.50           39.50          90.00
  C17                  88.25           44.50         -90.00
  C18                  13.50           32.00           0.00
  C19                  45.10           46.00         180.00
  C20                  22.50           46.00         180.00
  C21                  81.36           46.90          90.00
  C22                  82.46           46.90          90.00
  C23                  61.96           46.00          90.00
  C24                  63.06           46.00          90.00
  C25                  36.16           44.90          90.00
  C26                  37.26           44.90          90.00
  C27                  13.56           44.90          90.00
  C28                  14.66           44.90          90.00
  C29                  89.00           36.80           0.00
  C30                  89.00           35.70           0.00
  C31                  75.00           39.50          90.00
  C32                  81.00           42.50           0.00
  C33                  42.50           25.50          90.00
  C34                  11.00           11.00           0.00
  C35                   3.00           17.00           0.00
  C36                   3.00           30.50           0.00
  C37                   3.00           44.00           0.00
  C38                  89.00           30.00           0.00
  C39                  39.00           12.50           0.00
  C40                  84.50           16.50           0.00
  C41                  62.00           22.00          90.00
  C42                  67.20           22.60          90.00
  C43                  57.50           38.00           0.00
  C44                  54.50           28.00           0.00
  C45                  65.75           22.00          90.00
  C46                  53.00           38.00           0.00
  C47                  56.50           25.00           0.00
  C48                  74.50           20.50          90.00
  C49                  72.00           40.50           0.00
  C50                  79.50           35.50          90.00
  C51                  76.50           37.00           0.00
  C100                 66.00           40.50          90.00
  C101                 61.50           40.50          90.00
  C102                 57.00           34.60           0.00
  C103                 57.00           30.00           0.00
  C104                 60.25           25.50          90.00
  C105                 73.00           29.40           0.00
  C106                 71.00           38.50          90.00
  C107                 67.50           39.60          90.00
  C108                 64.50           39.60          90.00
  C109                 63.00           39.60          90.00
  C110                 58.00           36.10           0.00
  C111                 58.00           33.10           0.00
  C112                 58.10           31.50           0.00
  C113                 64.20           25.80          90.00
  C114                 72.00           30.90           0.00
  C115                 72.00           32.40           0.00
  C116                 73.50           34.00           0.00
  C117                 77.00           35.50           0.00
  C118                 68.50           24.50          90.00
  CN5                  99.05           36.86          90.00
  D6                   51.90           41.50          90.00
  F5                   81.50           12.00           0.00
  FB1                  93.05           53.75          90.00
  FB2                  70.45           53.75          90.00
  FB3                  47.85           53.75          90.00
  FB4                  25.25           53.75          90.00
  FB5                  93.00           30.00           0.00
  FB6                  84.50           18.50           0.00
  FB7                  84.50           21.00           0.00
  FB8                  83.00           35.50          90.00
  FB9                  46.50           39.50          90.00
  JP1                  65.00           19.50         180.00
  JP2                  59.00           19.50         180.00
  JP3                  33.50           28.00           0.00
  JP4                  33.50           30.50           0.00
  L1                   51.00           12.00           0.00
  Q1                   64.50           14.50         180.00
  Q2                   57.50           14.50         180.00
  Q3                   34.00           16.50           0.00
  R1                   27.00           30.50           0.00
  R2                   27.00           29.00           0.00
  R3                   27.00           27.50           0.00
  R4                   27.00           26.00           0.00
  R5                   24.50           23.50           0.00
  R6                   27.00           23.50           0.00
  R7                   27.00           22.00           0.00
  R8                   27.00           20.50           0.00
  R9                   27.00           19.00           0.00
  R10                  34.00           24.00           0.00
  R11                  36.50           28.00           0.00
  R12                  36.50           30.50           0.00
  R13                  50.50           21.00          90.00
  R14                  50.00           39.00           0.00
  R15                  38.00           15.00          90.00
  R16                  97.00           52.50          90.00
  R17                  71.95           58.25          90.00
  R18                  49.35           58.25          90.00
  R19                  26.75           58.25          90.00
  R20                  87.00           10.50           0.00
  R23                  14.50           21.00           0.00
  R24                   6.50           27.00           0.00
  R25                   6.50           40.50           0.00
  R26                   6.50           54.00           0.00
  R27                  17.00           21.00           0.00
  R28                   6.50           28.50           0.00
  R29                   6.50           42.00           0.00
  R30                   6.50           55.50           0.00
  R31                  78.50           42.50           0.00
  R32                  73.00           36.00           0.00
  R33                  34.00           22.00           0.00
  R34                  34.00           26.00           0.00
  R35                  30.50           28.00           0.00
  R36                  30.50           30.50           0.00
  R37                  63.50           22.50          90.00
  R38                  72.00           21.00          90.00
  R39                  72.80           24.50          90.00
  R41                  63.00           17.50           0.00
  R42                  56.00           18.50           0.00
  R44                  46.50           12.00          90.00
  R49                  76.30           53.75          90.00
  R50                  53.70           53.75          90.00
  R51                  31.10           53.75          90.00
  R52                   8.50           53.75          90.00
  R53                  97.50           46.00           0.00
  R54                  72.00           18.50          90.00
  R60                  65.75           24.75          90.00
  R61                  69.30           21.70          90.00
  R62                  74.50           23.50           0.00
  R63                  71.60           24.50          90.00
  R64                  70.00           24.50          90.00
  R65                  74.50           25.00           0.00
  R66                  71.00           15.50          90.00
  R67                  39.50           15.00          90.00
  R68                  69.50           15.50          90.00
  R69                  41.00           15.00          90.00
  U1                   65.00           32.50         180.00
  U2                   46.50           23.50           0.00
  U3                   12.50           16.00           0.00
  U4                    4.50           22.00           0.00
  U5                    4.50           35.50           0.00
  U6                    4.50           49.00           0.00
  Y1                   78.00           40.00           0.00

----------------------------------------------------------------
  ESD parts

  FL1                  81.16           50.30           0.00
  FL2                  77.86           50.30         180.00
  FL3                  61.76           49.55           0.00
  FL4                  55.26           49.55         180.00
  FL5                  35.96           49.55           0.00
  FL6                  32.66           49.55         180.00
  FL7                  13.36           49.55           0.00
  FL8                  10.06           49.55         180.00
  FL9                  92.50           37.00          90.00
  FL10                 92.50           32.50          90.00
