%PART
4.7uF/X5R       C1
10uF            C10
10nF            C100
10nF            C101
10nF            C102
10nF            C103
10nF            C104
10nF            C105
10nF            C106
10nF            C107
10nF            C108
10nF            C109
10uF            C11
10nF            C110
10nF            C111
10nF            C112
10nF            C113
10nF            C114
10nF            C115
10nF            C116
10nF            C117
10nF            C118
10uF            C12
10uF            C13
10uF            C14
10uF            C16
150uF           C17
150uF           C18
150uF           C19
open(4.7uF/X5R) C2
150uF           C20
0.1uF           C21
0.1uF           C22
0.1uF           C23
0.1uF           C24
0.1uF           C25
0.1uF           C26
0.1uF           C27
0.1uF           C28
0.1uF           C29
4.7uF/X5R       C3
0.1uF           C30
8pF/CH          C31
8pF/CH          C32
0.1uF           C33
0.1uF           C34
0.1uF           C35
0.1uF           C36
0.1uF           C37
0.1uF           C38
1uF             C39
22uF /X5R       C4
0.1uF           C40
0.1uF           C41
0.1uF           C42
0.1uF           C43
0.1uF           C44
0.1uF           C45
0.1uF           C46
0.1uF           C47
0.1uF           C48
0.1uF           C49
22uF            C5
0.1uF           C50
0.1uF           C51
0.1uF           C52
22uF/X5R        C6
22uF/X5R        C7
1uF             C8
1uF             C9
USB3.0 receptacle  CN1
USB3.0 receptacle  CN2
USB3.0 receptacle  CN3
USB3.0 receptacle  CN4
USB3.0 micro-B receptacle  CN5
HEC-0470-01-630 CN6
open(LED)       D1
open(LED)       D2
open(LED)       D3
open(LED)       D4
open(LED)       D5
1SS294          D6
open(16V/1.5A)  F1
open(16V/1.5A)  F2
open(16V/1.5A)  F3
open(16V/1.5A)  F4
32V/5A          F5
BLM21PG600SN1   FB1
BLM21PG600SN1   FB2
BLM21PG600SN1   FB3
BLM21PG600SN1   FB4
BLM21PG600SN1   FB5
BLM21PG600SN1   FB6
BLM21PG600SN1   FB7
BLM21PG600SN1   FB9
Switch_PAD      JP1
Switch_PAD      JP2
Switch_PAD      JP3
Switch_PAD      JP4
4.7uH 2A/180mOhmDC  L1
4.7uH 2A/100mOhmDC  L2
QS6M3           Q1
open(RRH075P03TB)  Q3
10k             R1
10k             R10
10k             R11
10k             R12
10k             R13
10K             R14
1k              R15
open(1K)        R16
open(1K)        R17
open(1K)        R18
open(1K)        R19
10k             R2
open(1K)        R20
51K(1%)         R21
68K(1%)         R22
open(4.7K)      R23
open(4.7K)      R24
open(4.7K)      R25
open(4.7K)      R26
open(6.8K)      R27
open(6.8K)      R28
open(6.8K)      R29
10k             R3
open(6.8K)      R30
680             R31
1.6K(1%)        R32
4.7k            R33
4.7k            R34
4.7k            R35
4.7k            R36
15k             R37
open(15k)       R38
470k            R39
10k             R4
open(56)        R40
68              R41
open(0/2A)      R44
0/2A            R47
0 (1608)        R48
0 (1608)        R49
open(10k)       R5
0 (1608)        R50
0 (1608)        R51
0 (1608)        R52
0               R53 (1608)
0               R54
0               R55
0               R56
0 (1608)        R57
0 (1608)        R58
open(0)         R59
10k             R6
open(0)         R60
0               R61
open(0)         R62
0               R63
0               R64
0               R65
10k             R66
10k             R67
15k             R68
15k             R69
10k             R7
10k             R8
10k             R9
phi-0.5mm TH    TP1
phi-1mm PAD     TP10
phi-0.5mm TH    TP10g
phi-0.5mm TH    TP2
phi-0.5mm TH    TP3
phi-0.5mm TH    TP4
phi-0.5mm TH    TP5
phi-1mm PAD     TP6
phi-1mm PAD     TP7
phi-1mm PAD     TP8
phi-1mm PAD     TP8g
phi-1mm PAD     TP9
phi-1mm PAD     TP9g
uPD720210       U1
R1EX25064ASA00A U2
AP2101SG-13     U3
AP2101SG-13     U4
AP2101SG-13     U5
AP2101SG-13     U6
RT8058GQW       U7
AP7215-33YG     U8
Crystal 24MHz +/-100ppm  Y1
%NET
5V                      Q1-2 R54-1 TP7-1 F5-1
*                       R20-2 C2-1 R41-1 R48-1
*                       U4-3 U4-2 U3-3 U6-3
*                       U6-2 U5-3 U5-2 U3-2
*                       C37-1 C34-1 F3-2 C36-1
*                       F4-2 F2-2 F1-2 C35-1
*                       R57-1
SPISO                   U1-40 R33-1 U2-2
PVDD                    C52-1 U7-7 U7-12 C3-1
*                       U7-11 U7-10 U7-9 R48-2
LX_OUT                  C7-1 L2-2 R21-2 R47-1
*                       TP4-1 C6-1
PPON4B                  U1-60 U6-4 R9-1
LDO_OUT                 R58-2 TP2-1 C9-1 U8-3
LDO_IN                  U8-2 U8-TAB C8-1 R57-2
LX                      L2-1 U7-13 U7-14 U7-15
N25462343               R31-2 Y1-3 C32-1
VCCCH4_C                CN4-1 FB4-2
VCCCH2_C                CN2-1 FB2-2
VCCCH3_C                CN3-1 FB3-2
U3TXDN4_C               CN4-8 C27-2
VCCCH1_C                CN1-1 FB1-2
U3TXDP4_C               CN4-9 C28-2
U3TXDP3_C               CN3-9 C26-2
GND                     C31-2 C116-2 C51-2 C117-2
*                       C50-2 C115-1 C109-1 C108-1
*                       C47-2 C107-1 C46-2 C48-2
*                       C113-1 C49-2 C112-1 C111-1
*                       C110-1 C114-1 C42-2 C2-2
*                       C16-2 C39-1 C10-2 TP9g-1
*                       Y1-2 TP8g-1 D5-K C38-1
*                       R64-2 U1-73 CN6-2 C32-2
*                       TP10g-1 R68-1 C40-2 C44-2
*                       C101-1 C43-2 C100-1 U1-GND PAD
*                       C1-2 C118-2 C41-2 R37-2
*                       C5-2 R63-2 Y1-4 C104-1
*                       C45-2 C103-1 C105-1 C102-1
*                       C106-1 R49-1 CN1-4 R50-1
*                       R51-1 CN2-4 CN3-7 CN3-4
*                       CN4-4 CN4-7 R52-1 CN2-7
*                       CN1-7 R32-2 R38-2 R69-1
*                       C4-1 R53 (1608)-1 CN5-8 CN5-5
*                       Q1-5 U7-5 C7-2 C52-2
*                       U7-1 U7-2 R22-1 U7-3
*                       C6-2 C3-2 U7-17 C8-2
*                       C9-2 U3-1 U5-1 D4-K
*                       U6-1 C19-2 C20-2 D2-K
*                       U4-1 C14-2 C13-2 C17-2
*                       C18-2 D1-K C12-2 C11-2
*                       U2-4 C33-2 R35-1 R36-1
*                       R33-2 R34-2 R5-2 R30-2
*                       C37-2 R29-2 C36-2 R28-2
*                       R27-2 U8-1 U3-PAD U5-PAD
*                       U6-PAD U4-PAD D3-K C35-2
*                       C34-2
U3TXDN3_C               CN3-8 C25-2
U3TXDP2_C               CN2-9 C24-2
U3TXDN2_C               CN2-8 C23-2
N256990510              D4-A R19-1
U3TXDP1_C               CN1-9 C22-2
U3TXDN1_C               CN1-8 C21-2
U3TXDNU_C               C30-1 CN5-6
U3TXDPU_C               C29-1 CN5-7
N256993990              R16-1 D1-A
VBUSU_C                 FB5-1 CN5-1
N256991250              D3-A R18-1
N256993450              D2-A R17-1
N23088716               R21-1 R22-2 U7-4
OCI1B                   U1-45 U3-5 R1-1 R23-2
*                       R27-1
PPON1B                  U1-46 TP10-1 U3-4 R6-1
*                       R5-1
NGDRV                   U1-52 R59-2 JP1-2
V10FB                   R62-2 R65-1 U1-54
V33OUT                  C41-1 R60-1 C5-1 U1-48
*                       R37-1
V50IN                   R38-1 R54-2 U1-49 C42-1
U2DP1                   CN1-3 U1-9
5V-IN                   Q3-1 C40-1 R15-1 C1-1
*                       FB7-2 FB6-2 Q3-2 Q3-3
*                       TP6-1 F5-2
GND_EARTH               CN1-C R49-2 CN2-C CN3-C
*                       CN4-C R52-2 R51-2 R50-2
*                       R53 (1608)-2 CN5-C
PIN1                    FB7-1 FB6-1 CN6-1
PPON2B                  U1-56 R7-1 U4-4
SPISCK                  U1-41 R34-1 U2-6
BUSSEL                  R69-2 R67-1 U1-44
VBUSM                   R68-2 R66-1 U1-43
PPON3B                  U1-58 R8-1 U5-4
N25222546               Q3-8 Q3-7 Q3-6 Q3-5
*                       C38-2 FB5-2 R66-2
U2DMU                   U1-63 CN5-2
U3TXDPU                 U1-66 C29-2
U3TXDNU                 U1-65 C30-2
U2DPU                   U1-62 CN5-3
U3RXDPU                 U1-69 CN5-10
U3RXDNU                 U1-68 CN5-9
PGDRV                   R64-1 U1-51 R40-2 JP2-2
XT1                     Y1-1 C31-1 U1-74
N25228870               C39-2 Q3-4 R67-2 R15-2
*                       CN6-3
ILIM                    R63-1 U1-53 R39-2
XT2                     U1-75 R31-1
RREF                    U1-72 R32-1
N28335193               R20-1 D5-A
U3TXDN4                 C27-1 U1-30
U3TXDP4                 C28-1 U1-29
U2DM4                   CN4-2 U1-36
U2DM3                   CN3-2 U1-27
U3TXDP3                 C26-1 U1-20
U2DP4                   CN4-3 U1-35
U3RXDN4                 CN4-5 U1-33
V33IN                   U1-50 C118-1 R61-1
U2DP3                   CN3-3 U1-26
U3TXDN3                 C25-1 U1-21
U3RXDP4                 CN4-6 U1-32
U2DP2                   U1-18 CN2-3
U3TXDN2                 U1-13 C23-1
U3RXDN3                 CN3-5 U1-24
N25822619               L1-1 R44-1
U3RXDP3                 CN3-6 U1-23
U3RXDP1                 CN1-6 U1-6
U3TXDN1                 C21-1 U1-4
U2DM2                   CN2-2 U1-19
LED1B                   U1-37 R10-1
U3TXDP2                 C24-1 U1-12
U3TXDP1                 C22-1 U1-3
SUSPEND                 U1-1 TP8-1
U3RXDN2                 CN2-5 U1-16
U2DM1                   CN1-2 U1-10
U3RXDP2                 CN2-6 U1-15
U3RXDN1                 CN1-5 U1-7
OCI2B                   U1-55 U4-5 R2-1 R28-1
*                       R24-2
PWM-5V                  R39-1 Q1-4 L1-2 Q1-6
N25479453               JP2-1 R40-1 Q1-3 R41-2
N27000159               R59-1 JP1-1 Q1-1
RESETB                  C10-1 D6-1 U1-2 R14-2
*                       TP9-1
3.3V                    U1-25 C102-2 U1-17 D6-3
*                       R65-2 R60-2 R61-2 C44-1
*                       C43-1 R14-1 C100-2 U1-8
*                       C101-2 C106-2 U1-76 U1-61
*                       C105-2 U1-42 C104-2 U1-34
*                       C103-2 FB9-1 C16-1 C45-1
*                       R11-2 R12-2 R13-2 TP3-1
*                       U2-7 C33-1 U2-8 R10-2
*                       R9-2 R8-2 R7-2 R6-2
*                       R4-2 R3-2 R2-2 R1-2
*                       R58-1
N26048982               JP3-1 R35-2
N27477978               R13-1 U2-3
N26048560               R11-1 R55-1 JP3-3
N26062214               JP4-3 R12-1
N26064460               JP4-1 R56-2 R36-2
1.05V                   U1-22 U1-67 C115-2 U1-64
*                       U1-47 U1-31 C112-2 U1-28
*                       C111-2 C113-2 C114-2 U1-5
*                       C107-2 U1-14 U1-11 C108-2
*                       C109-2 C110-2 C49-1 C116-1
*                       U1-70 C50-1 C48-1 C47-1
*                       C46-1 R62-1 C4-2 R44-2
*                       R47-2 TP5-1
VCCCH3                  FB3-1 U5-8 U5-6 F3-1
*                       C19-1 R18-2 R25-1 U5-7
*                       C13-1
VCCCH4                  FB4-1 U6-8 U6-6 U6-7
*                       C14-1 R19-2 R26-1 F4-1
*                       C20-1
OCI3B                   U1-57 U5-5 R3-1 R29-1
*                       R25-2
OCI4B                   U1-59 U6-5 R4-1 R26-2
*                       R30-1
SPISI                   U1-39 U2-5 JP4-2 R56-1
SPICSB                  U1-38 U2-1 R55-2 JP3-2
A3.3V                   C51-1 FB9-2 C117-1 U1-71
VCCCH2                  FB2-1 F2-1 U4-6 U4-7
*                       U4-8 R17-2 C12-1 C18-1
*                       R24-1
VCCCH1                  FB1-1 U3-8 U3-6 U3-7
*                       C17-1 R16-2 C11-1 R23-1
*                       F1-1
N25120544               TP1-1 CN5-4
$